\relax 
\providecommand\hyper@newdestlabel[2]{}
\catcode`"\active
\providecommand\HyperFirstAtBeginDocument{\AtBeginDocument}
\HyperFirstAtBeginDocument{\ifx\hyper@anchor\@undefined
\global\let\oldcontentsline\contentsline
\gdef\contentsline#1#2#3#4{\oldcontentsline{#1}{#2}{#3}}
\global\let\oldnewlabel\newlabel
\gdef\newlabel#1#2{\newlabelxx{#1}#2}
\gdef\newlabelxx#1#2#3#4#5#6{\oldnewlabel{#1}{{#2}{#3}}}
\AtEndDocument{\ifx\hyper@anchor\@undefined
\let\contentsline\oldcontentsline
\let\newlabel\oldnewlabel
\fi}
\fi}
\global\let\hyper@last\relax 
\gdef\HyperFirstAtBeginDocument#1{#1}
\providecommand\HyField@AuxAddToFields[1]{}
\providecommand\HyField@AuxAddToCoFields[2]{}
\select@language{polish}
\@writefile{toc}{\select@language{polish}}
\@writefile{lof}{\select@language{polish}}
\@writefile{lot}{\select@language{polish}}
\@writefile{toc}{\contentsline {chapter}{\numberline {1}Wprowadzenie}{8}{chapter.1}}
\@writefile{lof}{\addvspace {10\p@ }}
\@writefile{lot}{\addvspace {10\p@ }}
\@writefile{toc}{\contentsline {section}{\numberline {1.1}Cel pracy}{8}{section.1.1}}
\@writefile{toc}{\contentsline {section}{\numberline {1.2}Zakres pracy}{8}{section.1.2}}
\@writefile{toc}{\contentsline {section}{\numberline {1.3}Analiza istniej\IeC {\k a}cych rozwi\IeC {\k a}za\IeC {\'n}}{9}{section.1.3}}
\@writefile{toc}{\contentsline {subsection}{\numberline {1.3.1}Program Hide Wizard}{9}{subsection.1.3.1}}
\@writefile{toc}{\contentsline {subsection}{\numberline {1.3.2}Program BlindBossKey}{10}{subsection.1.3.2}}
\@writefile{toc}{\contentsline {subsection}{\numberline {1.3.3}Driver to Hide Processes and Files - Hide Driver}{10}{subsection.1.3.3}}
\@writefile{toc}{\contentsline {subsection}{\numberline {1.3.4}Podsumowanie analizy}{12}{subsection.1.3.4}}
\@writefile{lot}{\contentsline {table}{\numberline {1.1}{\ignorespaces Podsumowanie analizy dost\IeC {\k e}pnych rozwi\IeC {\k a}za\IeC {\'n}}}{12}{table.1.1}}
\citation{mrussinovich12}
\citation{mrussinovich12}
\@writefile{toc}{\contentsline {chapter}{\numberline {2}Podstawy teoretyczne}{13}{chapter.2}}
\@writefile{lof}{\addvspace {10\p@ }}
\@writefile{lot}{\addvspace {10\p@ }}
\@writefile{toc}{\contentsline {section}{\numberline {2.1}Architektura Windows NT}{13}{section.2.1}}
\@writefile{lof}{\contentsline {figure}{\numberline {2.1}{\ignorespaces Architektura Windows NT}}{14}{figure.2.1}}
\@writefile{toc}{\contentsline {section}{\numberline {2.2}Ukrywanie proces\IeC {\'o}w}{16}{section.2.2}}
\citation{ghoglund06}
\citation{spopenko09}
\citation{swiatowiak08}
\@writefile{toc}{\contentsline {subsection}{\numberline {2.2.1}Punkty zaczepienia}{17}{subsection.2.2.1}}
\@writefile{toc}{\contentsline {subsubsection}{Punkty zaczepienia w j\IeC {\k a}drze systemu}{17}{section*.6}}
\citation{dabak99}
\@writefile{lof}{\contentsline {figure}{\numberline {2.2}{\ignorespaces Pier\IeC {\'s}cienie ochrony w procesorach z rodziny x86, x64.}}{18}{figure.2.2}}
\@writefile{toc}{\contentsline {subsubsection}{Punkty zaczepienia w tablicy deskryptor\IeC {\'o}w us\IeC {\l }ug systemowych}{18}{section*.7}}
\citation{amritaluru07}
\@writefile{toc}{\contentsline {subsubsection}{Modyfikacja zabezpiecze\IeC {\'n} SSDT z wykorzystaniem Memory Descriptor List.}{19}{section*.8}}
\citation{ghoglund06}
\@writefile{toc}{\contentsline {subsubsection}{Ukrywanie proces\IeC {\'o}w z wykorzystaniem SSDT}{21}{section*.9}}
\citation{ghoglund06}
\citation{ghoglund06}
\citation{butler}
\@writefile{toc}{\contentsline {subsection}{\numberline {2.2.2}Bezpo\IeC {\'s}rednie manipulacje na obiektach j\IeC {\k a}dra (DKOM)}{23}{subsection.2.2.2}}
\citation{ghoglund06}
\@writefile{toc}{\contentsline {subsubsection}{Okre\IeC {\'s}lenie wersji systemu operacyjnego}{25}{section*.10}}
\citation{ghoglund06}
\citation{butler}
\@writefile{toc}{\contentsline {subsubsection}{Ukrywanie proces\IeC {\'o}w z wykorzystaniem DKOM}{27}{section*.11}}
\citation{ghoglund06}
\@writefile{lof}{\contentsline {figure}{\numberline {2.3}{\ignorespaces \IeC {\'S}cie\IeC {\.z}ka od bloku KPRCB do listy proces\IeC {\'o}w.}}{28}{figure.2.3}}
\citation{butler}
\citation{ghoglund06}
\@writefile{lof}{\contentsline {figure}{\numberline {2.4}{\ignorespaces Lista aktywnych proces\IeC {\'o}w po ukryciu wybranego procesu.}}{30}{figure.2.4}}
\@writefile{toc}{\contentsline {section}{\numberline {2.3}Ukrywanie plik\IeC {\'o}w wykonywalnych.}{31}{section.2.3}}
\citation{spopenko09}
\@writefile{toc}{\contentsline {subsection}{\numberline {2.3.1}Punkty zaczepienia}{32}{subsection.2.3.1}}
\@writefile{lof}{\contentsline {figure}{\numberline {2.5}{\ignorespaces Schemat wywo\IeC {\l }ania FindFirstFile, FindNextFile, ZwQueryDirectoryFile}}{33}{figure.2.5}}
\citation{spopenko09}
\citation{spopenko09}
\@writefile{lof}{\contentsline {figure}{\numberline {2.6}{\ignorespaces Wynik deasemblacji funkcji ZwQueryDirectoryFile.}}{35}{figure.2.6}}
\@writefile{toc}{\contentsline {subsubsection}{Modyfikacja wynik\IeC {\'o}w zwracanych przez pierwotne funkcje.}{36}{section*.12}}
\citation{spopenko09}
\citation{spopenko09}
\@writefile{toc}{\contentsline {subsubsection}{Ukrycie wybranego pliku}{39}{section*.13}}
\citation{spopenko09}
\citation{spopenko09}
\citation{spopenko09}
\citation{ghoglund06}
\citation{spopenko09}
\citation{amritaluru07}
\citation{butler}
\citation{ghoglund06}
\citation{spopenko09}
\@writefile{toc}{\contentsline {section}{\numberline {2.4}Podsumowanie rozdzia\IeC {\l }u}{43}{section.2.4}}
\citation{MSDNlibrary}
\@writefile{toc}{\contentsline {chapter}{\numberline {3}Wykorzystane narz\IeC {\k e}dzia}{44}{chapter.3}}
\@writefile{lof}{\addvspace {10\p@ }}
\@writefile{lot}{\addvspace {10\p@ }}
\@writefile{toc}{\contentsline {section}{\numberline {3.1}J\IeC {\k e}zyki programowania - C,C++}{44}{section.3.1}}
\@writefile{toc}{\contentsline {section}{\numberline {3.2}Microsoft Visual Studio 2008}{44}{section.3.2}}
\citation{MSDNlibrary}
\citation{windgb}
\citation{windgb}
\@writefile{toc}{\contentsline {section}{\numberline {3.3}Windows Driver Developer Kit 2003}{45}{section.3.3}}
\@writefile{toc}{\contentsline {subsection}{\numberline {3.3.1}WinDBG}{45}{subsection.3.3.1}}
\@writefile{lof}{\contentsline {figure}{\numberline {3.1}{\ignorespaces Wynik deasemblacji funkcji ZwQuerySystemInformation.}}{46}{figure.3.1}}
\@writefile{toc}{\contentsline {section}{\numberline {3.4}Biblioteka Boost}{46}{section.3.4}}
\citation{bitbucket}
\@writefile{toc}{\contentsline {section}{\numberline {3.5}Sparx Enterprise Architect}{47}{section.3.5}}
\@writefile{toc}{\contentsline {section}{\numberline {3.6}System kontroli wersji Git}{47}{section.3.6}}
\@writefile{toc}{\contentsline {section}{\numberline {3.7}Podsumowanie rozdzia\IeC {\l }u}{49}{section.3.7}}
\citation{spopenko09}
\citation{sbratus11}
\@writefile{toc}{\contentsline {chapter}{\numberline {4}Za\IeC {\l }o\IeC {\.z}enia projektowe, wymagania oraz projekt aplikacji}{50}{chapter.4}}
\@writefile{lof}{\addvspace {10\p@ }}
\@writefile{lot}{\addvspace {10\p@ }}
\@writefile{toc}{\contentsline {section}{\numberline {4.1}Za\IeC {\l }o\IeC {\.z}enia projektowe i warunki wst\IeC {\k e}pne}{50}{section.4.1}}
\@writefile{lof}{\contentsline {figure}{\numberline {4.1}{\ignorespaces Osadzenie kluczowych komponent\IeC {\'o}w aplikacji w architekturze Windows NT}}{51}{figure.4.1}}
\citation{dleffinwell03}
\citation{dleffinwell03}
\@writefile{toc}{\contentsline {section}{\numberline {4.2}Wymagania dotycz\IeC {\k a}ce aplikacji}{52}{section.4.2}}
\@writefile{lof}{\contentsline {figure}{\numberline {4.2}{\ignorespaces Koszt naprawy b\IeC {\l }\IeC {\k e}du wymaga\IeC {\'n}}}{52}{figure.4.2}}
\citation{dleffinwell03}
\citation{dleffinwell03}
\@writefile{toc}{\contentsline {section}{\numberline {4.3}Opis wymaga\IeC {\'n}}{53}{section.4.3}}
\@writefile{toc}{\contentsline {subsection}{\numberline {4.3.1}Wymaganie niefunkcjonalne}{54}{subsection.4.3.1}}
\@writefile{lot}{\contentsline {table}{\numberline {4.1}{\ignorespaces Zbi\IeC {\'o}r wymaga\IeC {\'n} niefunkcjonalnych}}{54}{table.4.1}}
\@writefile{toc}{\contentsline {subsection}{\numberline {4.3.2}Wymagania funkcjonalne}{54}{subsection.4.3.2}}
\@writefile{lot}{\contentsline {table}{\numberline {4.2}{\ignorespaces Zbi\IeC {\'o}r wymaga\IeC {\'n} funkcjonalnych}}{56}{table.4.2}}
\citation{stevens07}
\citation{dleffinwell03}
\@writefile{toc}{\contentsline {section}{\numberline {4.4}Projekt aplikacji}{57}{section.4.4}}
\@writefile{toc}{\contentsline {subsection}{\numberline {4.4.1}Model przypadk\IeC {\'o}w u\IeC {\.z}ycia}{58}{subsection.4.4.1}}
\@writefile{lof}{\contentsline {figure}{\numberline {4.3}{\ignorespaces Diagram przypadk\IeC {\'o}w u\IeC {\.z}ycia}}{58}{figure.4.3}}
\@writefile{toc}{\contentsline {subsection}{\numberline {4.4.2}Model statyczny}{59}{subsection.4.4.2}}
\@writefile{lof}{\contentsline {figure}{\numberline {4.4}{\ignorespaces Podzia\IeC {\l } aplikacji na tryby u\IeC {\.z}ytkownika oraz j\IeC {\k a}dra.}}{59}{figure.4.4}}
\@writefile{lof}{\contentsline {figure}{\numberline {4.5}{\ignorespaces Diagram klas dla pakietu HideDriverGUI.}}{60}{figure.4.5}}
\@writefile{lof}{\contentsline {figure}{\numberline {4.6}{\ignorespaces Diagram klas dla pakietu Utilities.}}{61}{figure.4.6}}
\@writefile{lof}{\contentsline {figure}{\numberline {4.7}{\ignorespaces Diagram klas dla pakietu Driver Hide.}}{62}{figure.4.7}}
\@writefile{lof}{\contentsline {figure}{\numberline {4.8}{\ignorespaces Diagram klas dla pakietu drvUtils.}}{64}{figure.4.8}}
\@writefile{toc}{\contentsline {subsection}{\numberline {4.4.3}Model dynamiczny}{65}{subsection.4.4.3}}
\@writefile{lof}{\contentsline {figure}{\numberline {4.9}{\ignorespaces Diagram sekwencji dla dzia\IeC {\l }ania zwi\IeC {\k a}zanego z ukrywaniem proces\IeC {\'o}w/plik\IeC {\'o}w.}}{66}{figure.4.9}}
\@writefile{toc}{\contentsline {section}{\numberline {4.5}Podsumowanie rozdzia\IeC {\l }u}{67}{section.4.5}}
\@writefile{toc}{\contentsline {chapter}{\numberline {5}Implementacja i testowanie aplikacji}{68}{chapter.5}}
\@writefile{lof}{\addvspace {10\p@ }}
\@writefile{lot}{\addvspace {10\p@ }}
\@writefile{toc}{\contentsline {section}{\numberline {5.1}Krytyczne miejsca w kodzie}{68}{section.5.1}}
\@writefile{toc}{\contentsline {section}{\numberline {5.2}Trudno\IeC {\'s}ci implementacje}{70}{section.5.2}}
\@writefile{toc}{\contentsline {section}{\numberline {5.3}Testowanie aplikacji}{71}{section.5.3}}
\@writefile{toc}{\contentsline {subsection}{\numberline {5.3.1}Testy funkcjonalne}{71}{subsection.5.3.1}}
\@writefile{lot}{\contentsline {table}{\numberline {5.1}{\ignorespaces Wyniki przeprowadzonych test\IeC {\'o}w funkcjonalnych}}{72}{table.5.1}}
\@writefile{toc}{\contentsline {subsection}{\numberline {5.3.2}Testy niefunkcjonalne}{72}{subsection.5.3.2}}
\@writefile{toc}{\contentsline {subsubsection}{Testy bezpiecze\IeC {\'n}stwa}{73}{section*.14}}
\@writefile{lof}{\contentsline {figure}{\numberline {5.1}{\ignorespaces Zrzut ekranu pokazuj\IeC {\k a}cy ukrywane pliki.}}{73}{figure.5.1}}
\@writefile{lof}{\contentsline {figure}{\numberline {5.2}{\ignorespaces Zrzut ekranu z akcji ukrycia wybranych plik\IeC {\'o}w.}}{74}{figure.5.2}}
\@writefile{lof}{\contentsline {figure}{\numberline {5.3}{\ignorespaces Zrzut ekranu pokazuj\IeC {\k a}cy ukrywany proces w Task Manager.}}{74}{figure.5.3}}
\@writefile{lof}{\contentsline {figure}{\numberline {5.4}{\ignorespaces Zrzut ekranu z akcji ukrycia wybranych proces\IeC {\'o}w.}}{75}{figure.5.4}}
\@writefile{lof}{\contentsline {figure}{\numberline {5.5}{\ignorespaces Zrzut ekranu z pr\IeC {\'o}by nieautoryzowanego uruchomienia aplikacji.}}{75}{figure.5.5}}
\@writefile{lof}{\contentsline {figure}{\numberline {5.6}{\ignorespaces Zrzut ekranu potwierdzaj\IeC {\k a}cy skuteczne ukrycie procesu w Task Manager.}}{76}{figure.5.6}}
\@writefile{lof}{\contentsline {figure}{\numberline {5.7}{\ignorespaces Zrzut ekranu potwierdzaj\IeC {\k a}cy skuteczne ukrycie procesu w programie Process Explorer}}{76}{figure.5.7}}
\@writefile{lof}{\contentsline {figure}{\numberline {5.8}{\ignorespaces Zrzut ekranu potwierdzaj\IeC {\k a}cy skuteczne ukrycie plik\IeC {\'o}w w Eksploratorze systemu Windows.}}{77}{figure.5.8}}
\@writefile{lof}{\contentsline {figure}{\numberline {5.9}{\ignorespaces Zrzut ekranu potwierdzaj\IeC {\k a}cy skuteczne ukrycie plik\IeC {\'o}w w programie Free Commander.}}{77}{figure.5.9}}
\@writefile{toc}{\contentsline {subsubsection}{Testy wydajno\IeC {\'s}ciowe}{78}{section*.15}}
\@writefile{lof}{\contentsline {figure}{\numberline {5.10}{\ignorespaces Wykres przedstawiaj\IeC {\k a}cy czas u\IeC {\.z}ycia procesora podczas testowania bez uruchomionej aplikacji.}}{78}{figure.5.10}}
\@writefile{lof}{\contentsline {figure}{\numberline {5.11}{\ignorespaces Wykres przedstawiaj\IeC {\k a}cy czas u\IeC {\.z}ycie procesora podczas testowania wraz uruchomiona aplikacja.}}{79}{figure.5.11}}
\@writefile{lof}{\contentsline {figure}{\numberline {5.12}{\ignorespaces Wykres przedstawiaj\IeC {\k a}cy \IeC {\'s}redni czas Odczytu/zapisu z dysku podczas testowania bez uruchomionej aplikacji.}}{80}{figure.5.12}}
\@writefile{lof}{\contentsline {figure}{\numberline {5.13}{\ignorespaces Wykres przedstawiaj\IeC {\k a}cy \IeC {\'s}redni czas Odczytu/zapisu z dysku podczas testowania wraz uruchomiona aplikacja.}}{80}{figure.5.13}}
\@writefile{toc}{\contentsline {chapter}{\numberline {6}Wnioski ko\IeC {\'n}cowe}{82}{chapter.6}}
\@writefile{lof}{\addvspace {10\p@ }}
\@writefile{lot}{\addvspace {10\p@ }}
\bibcite{ghoglund06}{1}
\bibcite{ewrobel11}{2}
\bibcite{mrussinovich12}{3}
\bibcite{dleffinwell03}{4}
\bibcite{stevens07}{5}
\bibcite{MSDNlibrary}{6}
\bibcite{spopenko09}{7}
\bibcite{sbratus11}{8}
\bibcite{swiatowiak08}{9}
\bibcite{dabak99}{10}
\bibcite{amritaluru07}{11}
\bibcite{aprioritinc}{12}
\bibcite{opferman05}{13}
\bibcite{butler}{14}
\bibcite{windgb}{15}
\bibcite{bitbucket}{16}
