\select@language {polish}
\addvspace {10\p@ }
\addvspace {10\p@ }
\contentsline {figure}{\numberline {2.1}{\ignorespaces Architektura Windows NT}}{14}{figure.2.1}
\contentsline {figure}{\numberline {2.2}{\ignorespaces Pier\IeC {\'s}cienie ochrony w procesorach z rodziny x86, x64.}}{18}{figure.2.2}
\contentsline {figure}{\numberline {2.3}{\ignorespaces \IeC {\'S}cie\IeC {\.z}ka od bloku KPRCB do listy proces\IeC {\'o}w.}}{28}{figure.2.3}
\contentsline {figure}{\numberline {2.4}{\ignorespaces Lista aktywnych proces\IeC {\'o}w po ukryciu wybranego procesu.}}{30}{figure.2.4}
\contentsline {figure}{\numberline {2.5}{\ignorespaces Schemat wywo\IeC {\l }ania FindFirstFile, FindNextFile, ZwQueryDirectoryFile}}{33}{figure.2.5}
\contentsline {figure}{\numberline {2.6}{\ignorespaces Wynik deasemblacji funkcji ZwQueryDirectoryFile.}}{35}{figure.2.6}
\addvspace {10\p@ }
\contentsline {figure}{\numberline {3.1}{\ignorespaces Wynik deasemblacji funkcji ZwQuerySystemInformation.}}{46}{figure.3.1}
\addvspace {10\p@ }
\contentsline {figure}{\numberline {4.1}{\ignorespaces Osadzenie kluczowych komponent\IeC {\'o}w aplikacji w architekturze Windows NT}}{51}{figure.4.1}
\contentsline {figure}{\numberline {4.2}{\ignorespaces Koszt naprawy b\IeC {\l }\IeC {\k e}du wymaga\IeC {\'n}}}{52}{figure.4.2}
\contentsline {figure}{\numberline {4.3}{\ignorespaces Diagram przypadk\IeC {\'o}w u\IeC {\.z}ycia}}{58}{figure.4.3}
\contentsline {figure}{\numberline {4.4}{\ignorespaces Podzia\IeC {\l } aplikacji na tryby u\IeC {\.z}ytkownika oraz j\IeC {\k a}dra.}}{59}{figure.4.4}
\contentsline {figure}{\numberline {4.5}{\ignorespaces Diagram klas dla pakietu HideDriverGUI.}}{60}{figure.4.5}
\contentsline {figure}{\numberline {4.6}{\ignorespaces Diagram klas dla pakietu Utilities.}}{61}{figure.4.6}
\contentsline {figure}{\numberline {4.7}{\ignorespaces Diagram klas dla pakietu Driver Hide.}}{62}{figure.4.7}
\contentsline {figure}{\numberline {4.8}{\ignorespaces Diagram klas dla pakietu drvUtils.}}{64}{figure.4.8}
\contentsline {figure}{\numberline {4.9}{\ignorespaces Diagram sekwencji dla dzia\IeC {\l }ania zwi\IeC {\k a}zanego z ukrywaniem proces\IeC {\'o}w/plik\IeC {\'o}w.}}{66}{figure.4.9}
\addvspace {10\p@ }
\contentsline {figure}{\numberline {5.1}{\ignorespaces Zrzut ekranu pokazuj\IeC {\k a}cy ukrywane pliki.}}{73}{figure.5.1}
\contentsline {figure}{\numberline {5.2}{\ignorespaces Zrzut ekranu z akcji ukrycia wybranych plik\IeC {\'o}w.}}{74}{figure.5.2}
\contentsline {figure}{\numberline {5.3}{\ignorespaces Zrzut ekranu pokazuj\IeC {\k a}cy ukrywany proces w Task Manager.}}{74}{figure.5.3}
\contentsline {figure}{\numberline {5.4}{\ignorespaces Zrzut ekranu z akcji ukrycia wybranych proces\IeC {\'o}w.}}{75}{figure.5.4}
\contentsline {figure}{\numberline {5.5}{\ignorespaces Zrzut ekranu z pr\IeC {\'o}by nieautoryzowanego uruchomienia aplikacji.}}{75}{figure.5.5}
\contentsline {figure}{\numberline {5.6}{\ignorespaces Zrzut ekranu potwierdzaj\IeC {\k a}cy skuteczne ukrycie procesu w Task Manager.}}{76}{figure.5.6}
\contentsline {figure}{\numberline {5.7}{\ignorespaces Zrzut ekranu potwierdzaj\IeC {\k a}cy skuteczne ukrycie procesu w programie Process Explorer}}{76}{figure.5.7}
\contentsline {figure}{\numberline {5.8}{\ignorespaces Zrzut ekranu potwierdzaj\IeC {\k a}cy skuteczne ukrycie plik\IeC {\'o}w w Eksploratorze systemu Windows.}}{77}{figure.5.8}
\contentsline {figure}{\numberline {5.9}{\ignorespaces Zrzut ekranu potwierdzaj\IeC {\k a}cy skuteczne ukrycie plik\IeC {\'o}w w programie Free Commander.}}{77}{figure.5.9}
\contentsline {figure}{\numberline {5.10}{\ignorespaces Wykres przedstawiaj\IeC {\k a}cy czas u\IeC {\.z}ycia procesora podczas testowania bez uruchomionej aplikacji.}}{78}{figure.5.10}
\contentsline {figure}{\numberline {5.11}{\ignorespaces Wykres przedstawiaj\IeC {\k a}cy czas u\IeC {\.z}ycie procesora podczas testowania wraz uruchomiona aplikacja.}}{79}{figure.5.11}
\contentsline {figure}{\numberline {5.12}{\ignorespaces Wykres przedstawiaj\IeC {\k a}cy \IeC {\'s}redni czas Odczytu/zapisu z dysku podczas testowania bez uruchomionej aplikacji.}}{80}{figure.5.12}
\contentsline {figure}{\numberline {5.13}{\ignorespaces Wykres przedstawiaj\IeC {\k a}cy \IeC {\'s}redni czas Odczytu/zapisu z dysku podczas testowania wraz uruchomiona aplikacja.}}{80}{figure.5.13}
\addvspace {10\p@ }
